<svg width="40" height="40" viewBox="0 0 40 40" fill="none" xmlns="http://www.w3.org/2000/svg">
<mask id="path-1-inside-1" fill="white">
<path d="M0 20L20 0L40 20L20 40L0 20Z"/>
<path d="M2.67949 30L10 2.67949L37.3205 10L30 37.3205L2.67949 30Z"/>
<path d="M10 37.3205L2.67949 10L30 2.67949L37.3205 30L10 37.3205Z"/>
</mask>
<path d="M0 20L20 0L40 20L20 40L0 20Z" fill="white"/>
<path d="M2.67949 30L10 2.67949L37.3205 10L30 37.3205L2.67949 30Z" fill="white"/>
<path d="M10 37.3205L2.67949 10L30 2.67949L37.3205 30L10 37.3205Z" fill="white"/>
<path d="M20 0L20.7071 -0.707107L20 -1.41421L19.2929 -0.707107L20 0ZM0 20L-0.707107 19.2929L-1.41421 20L-0.707107 20.7071L0 20ZM20 40L19.2929 40.7071L20 41.4142L20.7071 40.7071L20 40ZM40 20L40.7071 20.7071L41.4142 20L40.7071 19.2929L40 20ZM10 2.67949L10.2588 1.71357L9.29289 1.45475L9.03407 2.42067L10 2.67949ZM2.67949 30L1.71356 29.7412L1.45474 30.7071L2.42067 30.9659L2.67949 30ZM30 37.3205L29.7412 38.2864L30.7071 38.5453L30.9659 37.5793L30 37.3205ZM37.3205 10L38.2864 10.2588L38.5452 9.29289L37.5793 9.03407L37.3205 10ZM2.67949 10L2.42067 9.03408L1.45474 9.2929L1.71356 10.2588L2.67949 10ZM10 37.3205L9.03407 37.5793L9.29289 38.5453L10.2588 38.2864L10 37.3205ZM37.3205 30L37.5793 30.9659L38.5452 30.7071L38.2864 29.7412L37.3205 30ZM30 2.67949L30.9659 2.42068L30.7071 1.45475L29.7412 1.71357L30 2.67949ZM19.2929 -0.707107L-0.707107 19.2929L0.707107 20.7071L20.7071 0.707107L19.2929 -0.707107ZM-0.707107 20.7071L19.2929 40.7071L20.7071 39.2929L0.707107 19.2929L-0.707107 20.7071ZM20.7071 40.7071L40.7071 20.7071L39.2929 19.2929L19.2929 39.2929L20.7071 40.7071ZM40.7071 19.2929L20.7071 -0.707107L19.2929 0.707107L39.2929 20.7071L40.7071 19.2929ZM9.03407 2.42067L1.71356 29.7412L3.64542 30.2588L10.9659 2.93831L9.03407 2.42067ZM2.42067 30.9659L29.7412 38.2864L30.2588 36.3546L2.93831 29.0341L2.42067 30.9659ZM30.9659 37.5793L38.2864 10.2588L36.3546 9.74118L29.0341 37.0617L30.9659 37.5793ZM37.5793 9.03407L10.2588 1.71357L9.74118 3.64542L37.0617 10.9659L37.5793 9.03407ZM1.71356 10.2588L9.03407 37.5793L10.9659 37.0617L3.64541 9.74118L1.71356 10.2588ZM10.2588 38.2864L37.5793 30.9659L37.0617 29.0341L9.74118 36.3546L10.2588 38.2864ZM38.2864 29.7412L30.9659 2.42068L29.0341 2.93831L36.3546 30.2588L38.2864 29.7412ZM29.7412 1.71357L2.42067 9.03408L2.93831 10.9659L30.2588 3.64542L29.7412 1.71357Z" fill="white" mask="url(#path-1-inside-1)"/>
<path d="M11.2061 14.0703C11.2061 12.9362 11.5742 12.0179 12.3105 11.3154C13.0469 10.6045 14.0117 10.249 15.2051 10.249C16.4154 10.249 17.3887 10.6003 18.125 11.3027C18.8613 11.9967 19.2295 12.9404 19.2295 14.1338V15.0479C19.2295 16.1904 18.8613 17.1087 18.125 17.8027C17.3887 18.4967 16.4238 18.8438 15.2305 18.8438C14.0286 18.8438 13.0553 18.4967 12.3105 17.8027C11.5742 17.1003 11.2061 16.1566 11.2061 14.9717V14.0703ZM13.6436 15.0479C13.6436 15.5557 13.7874 15.9661 14.0752 16.2793C14.3714 16.584 14.7565 16.7363 15.2305 16.7363C15.7044 16.7363 16.0811 16.5798 16.3604 16.2666C16.6396 15.9535 16.7793 15.5345 16.7793 15.0098V14.0703C16.7793 13.5625 16.6396 13.152 16.3604 12.8389C16.0811 12.5257 15.696 12.3691 15.2051 12.3691C14.7396 12.3691 14.363 12.5257 14.0752 12.8389C13.7874 13.1436 13.6436 13.571 13.6436 14.1211V15.0479ZM20.042 24.4678C20.042 23.3252 20.4144 22.4069 21.1592 21.7129C21.904 21.0104 22.8688 20.6592 24.0537 20.6592C25.2555 20.6592 26.2246 21.0062 26.9609 21.7002C27.7057 22.3857 28.0781 23.3337 28.0781 24.5439V25.458C28.0781 26.5921 27.7142 27.5104 26.9863 28.2129C26.2585 28.9069 25.2894 29.2539 24.0791 29.2539C22.8604 29.2539 21.8828 28.9027 21.1465 28.2002C20.4102 27.4977 20.042 26.5667 20.042 25.4072V24.4678ZM22.4795 25.458C22.4795 25.9235 22.6318 26.3213 22.9365 26.6514C23.2412 26.9814 23.6221 27.1465 24.0791 27.1465C25.1117 27.1465 25.6279 26.5752 25.6279 25.4326V24.4678C25.6279 23.96 25.484 23.5537 25.1963 23.249C24.9085 22.9359 24.5277 22.7793 24.0537 22.7793C23.5798 22.7793 23.1989 22.9359 22.9111 23.249C22.6234 23.5537 22.4795 23.9727 22.4795 24.5059V25.458ZM15.9541 27.6162L14.1641 26.6514L23.1904 12.2041L24.9805 13.1689L15.9541 27.6162Z" fill="#BE3149"/>
</svg>
